﻿Name,Organic,ENM type,Subtype,Modification,Shape,R1/nm (length),R2/nm (diameter),Aspect ratio,Mean curvature(nm),Physical surface area/nm^2,BET Surface area (m2/g),ROS Surface area-based,ebind_SPA,ebind_gluatmicacid,ebind_glutamicacidneutral,inflammation,onset dose
CEA long,1,CNT,MWCNT,Pristine,Tube,3100,25.97,119.3685021,0.038505968,252920.1998,62,76,missing,-2.3243,-4.1669,missing,missing
CEA short,1,CNT,MWCNT,Pristine,Tube,1020,25.97,39.27608779,0.038505968,83218.90444,62,48,missing,-2.3243,-4.1669,missing,missing
CNT3 CEA high  COOH,1,CNT,MWCNT,COOH_more,Tube,2500,25.97,96.26492106,0.038505968,203967.903,62,281,missing,-18.9,-1.78,missing,missing
CNT 4CEA low COOH,1,CNT,MWCNT,COOH,Tube,2500,25.97,96.26492106,0.038505968,203967.903,62,311,missing,-1.666,-3.714,missing,missing
